[
  {
    "id": "1",
    "name": "Borjomi",
    "image": "../images/borjomi.jpg",
    "color": "white",
    "price": "20"
  },
  {
    "id": "2",
    "name": "Burn",
    "image": "../images/burn.jpg",
    "color": "black",
    "price": "30"
  },
  {
    "id": "3",
    "name": "Coca Cola",
    "image": "../images/cocacola.jpg",
    "color": "red",
    "price": "15"
  },
  {
    "id": "4",
    "name": "Dr.Pepper",
    "image": "../images/drpepper.jpg",
    "color": "red",
    "price": "40"
  },
  {
    "id": "5",
    "name": "Heineken",
    "image": "../images/heineken.jpg",
    "color": "green",
    "price": "10"
  },
  {
    "id": "6",
    "name": "Квас Тарас",
    "image": "../images/kivastaras.jpg",
    "color": "black",
    "price": "15"
  },
  {
    "id": "7",
    "name": "Monster",
    "image": "../images/monster.png",
    "color": "green",
    "price": "45"
  },
  {
    "id": "8",
    "name": "Nonstop",
    "image": "../images/nonstop.jpg",
    "color": "green",
    "price": "15"
  },
  {
    "id": "9",
    "name": "Pepsi",
    "image": "../images/pepsi.jpg",
    "color": "blue",
    "price": "5"
  },
  {
    "id": "10",
    "name": "Живчик",
    "image": "../images/zhyvchyk.jpg",
    "color": "yellow",
    "price": "50"
  }
]